65
88
92
13
2
69
4
5
85
29
20
39
15
7
93
41
69
28
17
28
5
19
15
59
71
94
98
19
31
99
8
91
93
42
61
87
93
85
30
11
13
93
47
72
3
61
69
69
4
41
46
18
19
15
15
1
96
13
15
10
27
49
1
98
22
98
19
30
84
14
80
7
46
42
81
92
31
48
83
10
97
21
17
88
16
89
18
86
84
72
98
28
25
23
10
59
17
14
40
39
64
90
50
27
18
15
9
62
99
13
93
94
97
71
85
96
2
88
59
51
12
44
48
95
65
42
19
89
60
93
32
12
98
5
22
19
43
30
50
99
96
42
12
65
45
72
17
70
97
51
59
59
42
26
94
9
93
89
99
62
27
62
32
60
22
44
39
2
85
64
49
45
60
4
26
28
15
66
64
10
11
3
43
90
26
22
45
93
97
21
28
28
92
26
44
16
71
80
88
93
98
19
4
84
68
15
83
67
10
20
41
93
30
95
84
45
97
60
21
93
85
30
39
13
72
3
99
98
62
48
26
51
90
47
46
31
94
87
99
63
72
18
67
24
80
23
15
27
90
60
32
25
96
19
26
85
15
94
99
41
15
49
19
27
27
84
81
84
41
87
94
99
3
63
19
9
99
46
41
94
28
6
51
94
6
40
19
49
91
24
25
46
88
40
29
19
19
69
83
62
26
11
7
21
51
48
66
25
17
18
99
95
27
31
95
1
40
45
17
7
89
85
95
45
71
98
43
6
23
45
19
63
49
9
82
97
43
64
84
15
6
83
14
9
9
88
62
27
87
16
59
26
21
14
28
93
21
14
40
27
40
46
93
29
59
49
10
3
44
44
16
71
64
31
19
71
95
80
1
60
45
80
72
26
7
2
82
67
49
61
99
69
13
87
60
95
7
83
15
4
85
85
88
2
7
13
42
19
63
8
66
5
88
44
39
26
62
14
46
7
23
39
93
31
96
44
99
46
66
2
83
67
43
99
29
41
41
41
44
93
93
20
81
44
2
70
84
9
41
70
99
31
86
47
25
67
10
95
64
88
44
48
69
15
1
50
70
42
14
70
15
98
70
71
95
30
28
97
7
86
94
72
1
95
71
59
39
99
27
27
89
83
89
83
15
14
59
26
26
44
90
66
99
39
26
68
6
31
80
32
3
19
63
95
46
49
21
7
92
28
14
17
93
99
19
32
85
39
30
8
2
41
11
3
9
20
93
97
18
27
67
64
66
29
81
46
29
63
59
65
93
43
12
7
23
89
97
31
81
15
18
95
3
5
15
13
70
63
99
41
95
47
19
26
83
5
61
80
83
49
93
92
18
29
61
16
84
87
27
18
67
49
17
81
44
93
84
49
51
92
72
41
27
64
93
68
49
93
49
46
70
66
99
68
6
83
95
11
3
65
64
45
46
2
92
11
48
50
89
85
30
4
83
62
49
8
68
60
98
28
96
71
1
83
45
95
98
65
41
83
99
68
19
6
21
93
50
96
5
96
45
87
28
82
89
98
12
95
70
93
19
15
11
69
42
11
44
13
14
40
93
19
46
10
60
43
4
97
17
86
93
42
66
95
67
22
4
72
85
81
90
22
45
86
96
27
14
19
62
28
49
93
12
93
83
72
84
81
92
21
9
59
19
48
26
40
95
44
69
99
7
65
83
82
64
70
94
49
12
44
44
15
30
46
22
49
45
15
95
95
46
71
27
67
2
67
95
98
81
44
28
48
16
92
32
30
60
99
15
26
25
13
59
91
59
45
86
98
49
3
44
94
42
32
93
44
99
16
84
32
27
21
67
81
45
15
27
45
93
5
85
41
19
88
24
97
20
93
29
98
4
61
18
16
24
26
66
80
22
5
93
19
95
19
94
26
15
12
47
24
70
99
45
7
90
32
84
46
6
40
65
83
13
49
94
87
15
15
7
99
61
83
44
98
98
90
40
84
71
99
68
23
40
99
99
13
51
40
86
27
11
46
83
59
94
21
11
6
40
3
67
80
64
45
15
87
80
15
43
95
44
15
66
25
19
26
99
89
95
44
66
46
83
19
90
21
12
14
64
67
24
3
18
9
81
15
1
24
22
65
98
13
42
32
65
93
32
7
49
30
46
85
14
92
96
19
99
44
24
15
8
15
85
41
87
4
18
93
11
89
31
60
13
49
65
70
99
89
47
47
64
22
27
90
92
99
97
89
71
49
80
5
1
16
72
9
96
42
81
22
39
44
9
92
41
15
5
8
9
49
92
18
13
17
13
87
44
15
66
2
65
88
92
13
2
69
4
5
85
29
20
39
15
7
93
41
69
28
17
28
5
19
15
59
71
94
98
19
31
99
8
91
93
42
61
87
93
85
30
11
13
93
47
72
3
61
69
69
4
41
46
18
19
15
15
1
96
13
15
10
27
49
1
98
22
98
19
30
84
14
80
7
46
42
81
92
31
48
83
10
97
21
17
88
16
89
18
86
84
72
98
28
25
23
10
59
17
14
40
39
64
90
50
27
18
15
9
62
99
13
93
94
97
71
85
96
2
88
59
51
12
44
48
95
65
42
19
89
60
93
32
12
98
5
22
19
43
30
50
99
96
42
12
65
45
72
17
70
97
51
59
59
42
26
94
9
93
89
99
62
27
62
32
60
22
44
39
2
85
64
49
45
60
4
26
28
15
66
64
10
11
3
43
90
26
22
45
93
97
21
28
28
92
26
44
16
71
80
88
93
98
19
4
84
68
15
83
67
10
20
41
93
30
95
84
45
97
60
21
93
85
30
39
13
72
3
99
98
62
48
26
51
90
47
46
31
94
87
99
63
72
18
67
24
80
23
15
27
90
60
32
25
96
19
26
85
15
94
99
41
15
49
19
27
27
84
81
84
41
87
94
99
3
63
19
9
99
46
41
94
28
6
51
94
6
40
19
49
91
24
25
46
88
40
29
19
19
69
83
62
26
11
7
21
51
48
66
25
17
18
99
95
27
31
95
1
40
45
17
7
89
85
95
45
71
98
43
6
23
45
19
63
49
9
82
97
43
64
84
15
6
83
14
9
9
88
62
27
87
16
59
26
21
14
28
93
21
14
40
27
40
46
93
29
59
49
10
3
44
44
16
71
64
31
19
71
95
80
1
60
45
80
72
26
7
2
82
67
49
61
99
69
13
87
60
95
7
83
15
4
85
85
88
2
7
13
42
19
63
8
66
5
88
44
39
26
62
14
46
7
23
39
93
31
96
44
99
46
66
2
83
67
43
99
29
41
41
41
44
93
93
20
81
44
2
70
84
9
41
70
99
31
86
47
25
67
10
95
64
88
44
48
69
15
1
50
70
42
14
70
15
98
70
71
95
30
28
97
7
86
94
72
1
95
71
59
39
99
27
27
89
83
89
83
15
14
59
26
26
44
90
66
99
39
26
68
6
31
80
32
3
19
63
95
46
49
21
7
92
28
14
17
93
99
19
32
85
39
30
8
2
41
11
3
9
20
93
97
18
27
67
64
66
29
81
46
29
63
59
65
93
43
12
7
23
89
97
31
81
15
18
95
3
5
15
13
70
63
99
41
95
47
19
26
83
5
61
80
83
49
93
92
18
29
61
16
84
87
27
18
67
49
17
81
44
93
84
49
51
92
72
41
27
64
93
68
49
93
49
46
70
66
99
68
6
83
95
11
3
65
64
45
46
2
92
11
48
50
89
85
30
4
83
62
49
8
68
60
98
28
96
71
1
83
45
95
98
65
41
83
99
68
19
6
21
93
50
96
5
96
45
87
28
82
89
98
12
95
70
93
19
15
11
69
42
11
44
13
14
40
93
19
46
10
60
43
4
97
17
86
93
42
66
95
67
22
4
72
85
81
90
22
45
86
96
27
14
19
62
28
49
93
12
93
83
72
84
81
92
21
9
59
19
48
26
40
95
44
69
99
7
65
83
82
64
70
94
49
12
44
44
15
30
46
22
49
45
15
95
95
46
71
27
67
2
67
95
98
81
44
28
48
16
92
32
30
60
99
15
26
25
13
59
91
59
45
86
98
49
3
44
94
42
32
93
44
99
16
84
32
27
21
67
81
45
15
27
45
93
5
85
41
19
88
24
97
20
93
29
98
4
61
18
16
24
26
66
80
22
5
93
19
95
19
94
26
15
12
47
24
70
99
45
7
90
32
84
46
6
40
65
83
13
49
94
87
15
15
7
99
61
83
44
98
98
90
40
84
71
99
68
23
40
99
99
13
51
40
86
27
11
46
83
59
94
21
11
6
40
3
67
80
64
45
15
87
80
15
43
95
44
15
66
25
19
26
99
89
95
44
66
46
83
19
90
21
12
14
64
67
24
3
18
9
81
15
1
24
22
65
98
13
42
32
65
93
32
7
49
30
46
85
14
92
96
19
99
44
24
15
8
15
85
41
87
4
18
93
11
89
31
60
13
49
65
70
99
89
47
47
64
22
27
90
92
99
97
89
71
49
80
5
1
16
72
9
96
42
81
22
39
44
9
92
41
15
5
8
9
49
92
18
13
17
13
87
44
65
88
92
13
2
69
4
5
85
29
20
39
15
7
93
41
69
28
17
28
5
19
15
59
71
94
98
19
31
99
8
91
93
42
61
87
93
85
30
11
13
93
47
72
3
61
69
69
4
41
46
18
19
15
15
1
96
13
15
10
27
49
1
98
22
98
19
30
84
14
80
7
46
42
81
92
31
48
83
10
97
21
17
88
16
89
18
86
84
72
98
28
25
23
10
59
17
14
40
39
64
90
50
27
18
15
9
62
99
13
93
94
97
71
85
96
2
88
59
51
12
44
48
95
65
42
19
89
60
93
32
12
98
5
22
19
43
30
50
99
96
42
12
65
45
72
17
70
97
51
59
59
42
26
94
9
93
89
99
62
27
62
32
60
22
44
39
2
85
64
49
45
60
4
26
28
15
66
64
10
11
3
43
90
26
22
45
93
97
21
28
28
92
26
44
16
71
80
88
93
98
19
4
84
68
15
83
67
10
20
41
93
30
95
84
45
97
60
21
93
85
30
39
13
72
3
99
98
62
48
26
51
90
47
46
31
94
87
99
63
72
18
67
24
80
23
15
27
90
60
32
25
96
19
26
85
15
94
99
41
15
49
19
27
27
84
81
84
41
87
94
99
3
63
19
9
99
46
41
94
28
6
51
94
6
40
19
49
91
24
25
46
88
40
29
19
19
69
83
62
26
11
7
21
51
48
66
25
17
18
99
95
27
31
95
1
40
45
17
7
89
85
95
45
71
98
43
6
23
45
19
63
49
9
82
97
43
64
84
15
6
83
14
9
9
88
62
27